[{"line":1,"elements":[{"line":19,"name":"select stmt test case3","description":"","id":"select-stmt-test-case3","type":"scenario","keyword":"Scenario","steps":[{"name":"def util = Java.type(\"misc.Utils\")","result":{"duration":9830100,"status":"passed"},"match":{"location":"karate","arguments":[]},"keyword":"*","line":20,"doc_string":{"content_type":"","value":"15:12:42.792 skipping bootstrap configuration: could not find or read file: classpath:karate-config.js","line":20}},{"name":"url \"https:\/\/reqres.in\/api\/users?page=2\"","result":{"duration":2188800,"status":"passed"},"match":{"location":"karate","arguments":[]},"keyword":"Given","line":21},{"name":"method get","result":{"duration":818739900,"status":"passed"},"match":{"location":"karate","arguments":[]},"keyword":"When","line":22,"doc_string":{"content_type":"","value":"15:12:43.136 request:\n1 > GET https:\/\/reqres.in\/api\/users?page=2\n1 > Accept-Encoding: gzip,deflate\n1 > Connection: Keep-Alive\n1 > Host: reqres.in\n1 > User-Agent: Apache-HttpClient\/4.5.12 (Java\/1.8.0_251)\n\n15:12:43.589 response time in milliseconds: 455.78\n1 < 200\n1 < Access-Control-Allow-Origin: *\n1 < Age: 559\n1 < CF-Cache-Status: HIT\n1 < CF-RAY: 61c371799e69017a-SIN\n1 < Cache-Control: max-age=14400\n1 < Connection: keep-alive\n1 < Content-Type: application\/json; charset=utf-8\n1 < Date: Thu, 04 Feb 2021 09:42:43 GMT\n1 < Etag: W\/\"406-ut0vzoCuidvyMf8arZpMpJ6ZRDw\"\n1 < Expect-CT: max-age=604800, report-uri=\"https:\/\/report-uri.cloudflare.com\/cdn-cgi\/beacon\/expect-ct\"\n1 < NEL: {\"report_to\":\"cf-nel\",\"max_age\":604800}\n1 < Report-To: {\"max_age\":604800,\"endpoints\":[{\"url\":\"https:\\\/\\\/a.nel.cloudflare.com\\\/report?s=6JRuygU2P2d1qZvuEUCoNmMx9%2BD5u6TUi0H1JLdvG7exiyS4mgjXdnSpdyJi%2Flt9nSoz%2FR3BrB%2Bvb1y3txAE5na7JdHyUMPUvBQ%3D\"}],\"group\":\"cf-nel\"}\n1 < Server: cloudflare\n1 < Set-Cookie: __cfduid=d07041eaaccc5ec808478ecd59fc0099f1612431763; expires=Sat, 06-Mar-21 09:42:43 GMT; path=\/; domain=.reqres.in; HttpOnly; SameSite=Lax; Secure\n1 < Transfer-Encoding: chunked\n1 < Vary: Accept-Encoding\n1 < Via: 1.1 vegur\n1 < X-Powered-By: Express\n1 < cf-request-id: 080e053ffe0000017acb9a1000000001\n{\"page\":2,\"per_page\":6,\"total\":12,\"total_pages\":2,\"data\":[{\"id\":7,\"email\":\"michael.lawson@reqres.in\",\"first_name\":\"Michael\",\"last_name\":\"Lawson\",\"avatar\":\"https:\/\/reqres.in\/img\/faces\/7-image.jpg\"},{\"id\":8,\"email\":\"lindsay.ferguson@reqres.in\",\"first_name\":\"Lindsay\",\"last_name\":\"Ferguson\",\"avatar\":\"https:\/\/reqres.in\/img\/faces\/8-image.jpg\"},{\"id\":9,\"email\":\"tobias.funke@reqres.in\",\"first_name\":\"Tobias\",\"last_name\":\"Funke\",\"avatar\":\"https:\/\/reqres.in\/img\/faces\/9-image.jpg\"},{\"id\":10,\"email\":\"byron.fields@reqres.in\",\"first_name\":\"Byron\",\"last_name\":\"Fields\",\"avatar\":\"https:\/\/reqres.in\/img\/faces\/10-image.jpg\"},{\"id\":11,\"email\":\"george.edwards@reqres.in\",\"first_name\":\"George\",\"last_name\":\"Edwards\",\"avatar\":\"https:\/\/reqres.in\/img\/faces\/11-image.jpg\"},{\"id\":12,\"email\":\"rachel.howell@reqres.in\",\"first_name\":\"Rachel\",\"last_name\":\"Howell\",\"avatar\":\"https:\/\/reqres.in\/img\/faces\/12-image.jpg\"}],\"support\":{\"url\":\"https:\/\/reqres.in\/#support-heading\",\"text\":\"To keep ReqRes free, contributions towards server costs are appreciated!\"}}","line":22}},{"name":"status 200","result":{"duration":24800,"status":"passed"},"match":{"location":"karate","arguments":[]},"keyword":"Then","line":23},{"name":"util.writeToFile(\"result.json\",response)","result":{"duration":19237600,"status":"passed"},"match":{"location":"karate","arguments":[]},"keyword":"*","line":24}]}],"name":"src\/test\/java\/featurefiles\/Karate16WritingResponeToFile.feature","description":"Karate Testsuite16\nwriting response to external file","id":"karate-testsuite16","keyword":"Feature","uri":"src\/test\/java\/featurefiles\/Karate16WritingResponeToFile.feature"}]