[{"line":1,"elements":[{"line":4,"name":"select stmt test case","description":"","id":"select-stmt-test-case","type":"scenario","keyword":"Scenario","steps":[{"name":"def util = Java.type(\"misc.Utils\")","result":{"duration":2156200,"status":"passed"},"match":{"location":"karate","arguments":[]},"keyword":"*","line":5,"doc_string":{"content_type":"","value":"16:05:25.224 From karate-config file","line":5}},{"name":"url \"https:\/\/reqres.in\/api\/users?page=2\"","result":{"duration":1512800,"status":"passed"},"match":{"location":"karate","arguments":[]},"keyword":"Given","line":6},{"name":"method get","result":{"duration":187257100,"status":"passed"},"match":{"location":"karate","arguments":[]},"keyword":"When","line":7,"doc_string":{"content_type":"","value":"16:05:25.240 request:\n1 > GET https:\/\/reqres.in\/api\/users?page=2\n1 > Accept-Encoding: gzip,deflate\n1 > Connection: Keep-Alive\n1 > Host: reqres.in\n1 > User-Agent: Apache-HttpClient\/4.5.12 (Java\/1.8.0_251)\n\n16:05:25.428 response time in milliseconds: 184.50\n1 < 200\n1 < Access-Control-Allow-Origin: *\n1 < Age: 3620\n1 < CF-Cache-Status: HIT\n1 < CF-RAY: 61cbfc0b9c2a1a26-SIN\n1 < Cache-Control: max-age=14400\n1 < Connection: keep-alive\n1 < Content-Type: application\/json; charset=utf-8\n1 < Date: Fri, 05 Feb 2021 10:35:25 GMT\n1 < Etag: W\/\"406-ut0vzoCuidvyMf8arZpMpJ6ZRDw\"\n1 < Expect-CT: max-age=604800, report-uri=\"https:\/\/report-uri.cloudflare.com\/cdn-cgi\/beacon\/expect-ct\"\n1 < NEL: {\"report_to\":\"cf-nel\",\"max_age\":604800}\n1 < Report-To: {\"max_age\":604800,\"endpoints\":[{\"url\":\"https:\\\/\\\/a.nel.cloudflare.com\\\/report?s=x2DhZihgQFTjUpcK4DPm70A1naOVejL%2Bnn8IgiVnZNreaw%2BcxUWAsVDbF7usHgtrAc62Vk0EsmCr2Dbw643LPHHJiLDSrRTDHBs%3D\"}],\"group\":\"cf-nel\"}\n1 < Server: cloudflare\n1 < Set-Cookie: __cfduid=d5597bf1cfeac6e8ca4222b26ac417afc1612521325; expires=Sun, 07-Mar-21 10:35:25 GMT; path=\/; domain=.reqres.in; HttpOnly; SameSite=Lax; Secure\n1 < Transfer-Encoding: chunked\n1 < Vary: Accept-Encoding\n1 < Via: 1.1 vegur\n1 < X-Powered-By: Express\n1 < cf-request-id: 08135bdb3c00001a2603254000000001\n{\"page\":2,\"per_page\":6,\"total\":12,\"total_pages\":2,\"data\":[{\"id\":7,\"email\":\"michael.lawson@reqres.in\",\"first_name\":\"Michael\",\"last_name\":\"Lawson\",\"avatar\":\"https:\/\/reqres.in\/img\/faces\/7-image.jpg\"},{\"id\":8,\"email\":\"lindsay.ferguson@reqres.in\",\"first_name\":\"Lindsay\",\"last_name\":\"Ferguson\",\"avatar\":\"https:\/\/reqres.in\/img\/faces\/8-image.jpg\"},{\"id\":9,\"email\":\"tobias.funke@reqres.in\",\"first_name\":\"Tobias\",\"last_name\":\"Funke\",\"avatar\":\"https:\/\/reqres.in\/img\/faces\/9-image.jpg\"},{\"id\":10,\"email\":\"byron.fields@reqres.in\",\"first_name\":\"Byron\",\"last_name\":\"Fields\",\"avatar\":\"https:\/\/reqres.in\/img\/faces\/10-image.jpg\"},{\"id\":11,\"email\":\"george.edwards@reqres.in\",\"first_name\":\"George\",\"last_name\":\"Edwards\",\"avatar\":\"https:\/\/reqres.in\/img\/faces\/11-image.jpg\"},{\"id\":12,\"email\":\"rachel.howell@reqres.in\",\"first_name\":\"Rachel\",\"last_name\":\"Howell\",\"avatar\":\"https:\/\/reqres.in\/img\/faces\/12-image.jpg\"}],\"support\":{\"url\":\"https:\/\/reqres.in\/#support-heading\",\"text\":\"To keep ReqRes free, contributions towards server costs are appreciated!\"}}","line":7}},{"name":"status 200","result":{"duration":7300,"status":"passed"},"match":{"location":"karate","arguments":[]},"keyword":"Then","line":8},{"name":"def res = get response","result":{"duration":420200,"status":"passed"},"match":{"location":"karate","arguments":[]},"keyword":"*","line":9},{"name":"print res","result":{"duration":569600,"status":"passed"},"match":{"location":"karate","arguments":[]},"keyword":"*","line":12,"doc_string":{"content_type":"","value":"16:05:25.428 [print] {\n  \"per_page\": 6,\n  \"total\": 12,\n  \"data\": [\n    {\n      \"last_name\": \"Lawson\",\n      \"id\": 7,\n      \"avatar\": \"https:\/\/reqres.in\/img\/faces\/7-image.jpg\",\n      \"first_name\": \"Michael\",\n      \"email\": \"michael.lawson@reqres.in\"\n    },\n    {\n      \"last_name\": \"Ferguson\",\n      \"id\": 8,\n      \"avatar\": \"https:\/\/reqres.in\/img\/faces\/8-image.jpg\",\n      \"first_name\": \"Lindsay\",\n      \"email\": \"lindsay.ferguson@reqres.in\"\n    },\n    {\n      \"last_name\": \"Funke\",\n      \"id\": 9,\n      \"avatar\": \"https:\/\/reqres.in\/img\/faces\/9-image.jpg\",\n      \"first_name\": \"Tobias\",\n      \"email\": \"tobias.funke@reqres.in\"\n    },\n    {\n      \"last_name\": \"Fields\",\n      \"id\": 10,\n      \"avatar\": \"https:\/\/reqres.in\/img\/faces\/10-image.jpg\",\n      \"first_name\": \"Byron\",\n      \"email\": \"byron.fields@reqres.in\"\n    },\n    {\n      \"last_name\": \"Edwards\",\n      \"id\": 11,\n      \"avatar\": \"https:\/\/reqres.in\/img\/faces\/11-image.jpg\",\n      \"first_name\": \"George\",\n      \"email\": \"george.edwards@reqres.in\"\n    },\n    {\n      \"last_name\": \"Howell\",\n      \"id\": 12,\n      \"avatar\": \"https:\/\/reqres.in\/img\/faces\/12-image.jpg\",\n      \"first_name\": \"Rachel\",\n      \"email\": \"rachel.howell@reqres.in\"\n    }\n  ],\n  \"page\": 2,\n  \"total_pages\": 2,\n  \"support\": {\n    \"text\": \"To keep ReqRes free, contributions towards server costs are appreciated!\",\n    \"url\": \"https:\/\/reqres.in\/#support-heading\"\n  }\n}","line":12}},{"name":"util.writeToFile(\"result.json\",res)","result":{"duration":4281200,"status":"passed"},"match":{"location":"karate","arguments":[]},"keyword":"*","line":13,"doc_string":{"content_type":"","value":"16:05:25.428 after scenario inside config","line":13}}]},{"line":15,"name":"Reading result file","description":"","id":"reading-result-file","type":"scenario","keyword":"Scenario","steps":[{"name":"def data = read(\"classpath:result.json\")","result":{"duration":3182400,"status":"passed"},"match":{"location":"karate","arguments":[]},"keyword":"*","line":16,"doc_string":{"content_type":"","value":"16:05:25.428 From karate-config file","line":16}},{"name":"print data","result":{"duration":202800,"status":"passed"},"match":{"location":"karate","arguments":[]},"keyword":"*","line":17,"doc_string":{"content_type":"","value":"16:05:25.428 [print] {\n  \"per_page\": 6,\n  \"total\": 12,\n  \"data\": [\n    {\n      \"last_name\": \"Lawson\",\n      \"id\": 7,\n      \"avatar\": \"https:\/\/reqres.in\/img\/faces\/7-image.jpg\",\n      \"first_name\": \"Michael\",\n      \"email\": \"michael.lawson@reqres.in\"\n    },\n    {\n      \"last_name\": \"Ferguson\",\n      \"id\": 8,\n      \"avatar\": \"https:\/\/reqres.in\/img\/faces\/8-image.jpg\",\n      \"first_name\": \"Lindsay\",\n      \"email\": \"lindsay.ferguson@reqres.in\"\n    },\n    {\n      \"last_name\": \"Funke\",\n      \"id\": 9,\n      \"avatar\": \"https:\/\/reqres.in\/img\/faces\/9-image.jpg\",\n      \"first_name\": \"Tobias\",\n      \"email\": \"tobias.funke@reqres.in\"\n    },\n    {\n      \"last_name\": \"Fields\",\n      \"id\": 10,\n      \"avatar\": \"https:\/\/reqres.in\/img\/faces\/10-image.jpg\",\n      \"first_name\": \"Byron\",\n      \"email\": \"byron.fields@reqres.in\"\n    },\n    {\n      \"last_name\": \"Edwards\",\n      \"id\": 11,\n      \"avatar\": \"https:\/\/reqres.in\/img\/faces\/11-image.jpg\",\n      \"first_name\": \"George\",\n      \"email\": \"george.edwards@reqres.in\"\n    },\n    {\n      \"last_name\": \"Howell\",\n      \"id\": 12,\n      \"avatar\": \"https:\/\/reqres.in\/img\/faces\/12-image.jpg\",\n      \"first_name\": \"Rachel\",\n      \"email\": \"rachel.howell@reqres.in\"\n    }\n  ],\n  \"page\": 2,\n  \"total_pages\": 2,\n  \"support\": {\n    \"text\": \"To keep ReqRes free, contributions towards server costs are appreciated!\",\n    \"url\": \"https:\/\/reqres.in\/#support-heading\"\n  }\n}16:05:25.428 after scenario inside config","line":17}}]},{"line":19,"name":"select stmt test case3","description":"","id":"select-stmt-test-case3","type":"scenario","keyword":"Scenario","steps":[{"name":"def util = Java.type(\"misc.Utils\")","result":{"duration":255300,"status":"passed"},"match":{"location":"karate","arguments":[]},"keyword":"*","line":20,"doc_string":{"content_type":"","value":"16:05:25.443 From karate-config file","line":20}},{"name":"url \"https:\/\/reqres.in\/api\/users?page=2\"","result":{"duration":65000,"status":"passed"},"match":{"location":"karate","arguments":[]},"keyword":"Given","line":21},{"name":"method get","result":{"duration":180850400,"status":"passed"},"match":{"location":"karate","arguments":[]},"keyword":"When","line":22,"doc_string":{"content_type":"","value":"16:05:25.445 request:\n1 > GET https:\/\/reqres.in\/api\/users?page=2\n1 > Accept-Encoding: gzip,deflate\n1 > Connection: Keep-Alive\n1 > Host: reqres.in\n1 > User-Agent: Apache-HttpClient\/4.5.12 (Java\/1.8.0_251)\n\n16:05:25.615 response time in milliseconds: 178.85\n1 < 200\n1 < Access-Control-Allow-Origin: *\n1 < Age: 3620\n1 < CF-Cache-Status: HIT\n1 < CF-RAY: 61cbfc0cda801a15-SIN\n1 < Cache-Control: max-age=14400\n1 < Connection: keep-alive\n1 < Content-Type: application\/json; charset=utf-8\n1 < Date: Fri, 05 Feb 2021 10:35:25 GMT\n1 < Etag: W\/\"406-ut0vzoCuidvyMf8arZpMpJ6ZRDw\"\n1 < Expect-CT: max-age=604800, report-uri=\"https:\/\/report-uri.cloudflare.com\/cdn-cgi\/beacon\/expect-ct\"\n1 < NEL: {\"max_age\":604800,\"report_to\":\"cf-nel\"}\n1 < Report-To: {\"endpoints\":[{\"url\":\"https:\\\/\\\/a.nel.cloudflare.com\\\/report?s=KpO3rBYOWvWiX27O%2FlFgEk09cjNfzHBNOpzSdEJI9Ql1uBHWU6LvSNETFVz48ZEzV4xoX2P0DSc6aAUyq8PwIeTTpdSOI%2Btu1eg%3D\"}],\"max_age\":604800,\"group\":\"cf-nel\"}\n1 < Server: cloudflare\n1 < Set-Cookie: __cfduid=d4f3f608cfb9ee3c2f9612a50a8d759bc1612521325; expires=Sun, 07-Mar-21 10:35:25 GMT; path=\/; domain=.reqres.in; HttpOnly; SameSite=Lax; Secure\n1 < Transfer-Encoding: chunked\n1 < Vary: Accept-Encoding\n1 < Via: 1.1 vegur\n1 < X-Powered-By: Express\n1 < cf-request-id: 08135bdc0b00001a15730d6000000001\n{\"page\":2,\"per_page\":6,\"total\":12,\"total_pages\":2,\"data\":[{\"id\":7,\"email\":\"michael.lawson@reqres.in\",\"first_name\":\"Michael\",\"last_name\":\"Lawson\",\"avatar\":\"https:\/\/reqres.in\/img\/faces\/7-image.jpg\"},{\"id\":8,\"email\":\"lindsay.ferguson@reqres.in\",\"first_name\":\"Lindsay\",\"last_name\":\"Ferguson\",\"avatar\":\"https:\/\/reqres.in\/img\/faces\/8-image.jpg\"},{\"id\":9,\"email\":\"tobias.funke@reqres.in\",\"first_name\":\"Tobias\",\"last_name\":\"Funke\",\"avatar\":\"https:\/\/reqres.in\/img\/faces\/9-image.jpg\"},{\"id\":10,\"email\":\"byron.fields@reqres.in\",\"first_name\":\"Byron\",\"last_name\":\"Fields\",\"avatar\":\"https:\/\/reqres.in\/img\/faces\/10-image.jpg\"},{\"id\":11,\"email\":\"george.edwards@reqres.in\",\"first_name\":\"George\",\"last_name\":\"Edwards\",\"avatar\":\"https:\/\/reqres.in\/img\/faces\/11-image.jpg\"},{\"id\":12,\"email\":\"rachel.howell@reqres.in\",\"first_name\":\"Rachel\",\"last_name\":\"Howell\",\"avatar\":\"https:\/\/reqres.in\/img\/faces\/12-image.jpg\"}],\"support\":{\"url\":\"https:\/\/reqres.in\/#support-heading\",\"text\":\"To keep ReqRes free, contributions towards server costs are appreciated!\"}}","line":22}},{"name":"status 200","result":{"duration":5400,"status":"passed"},"match":{"location":"karate","arguments":[]},"keyword":"Then","line":23},{"name":"util.writeToFile(\"result.json\",response)","result":{"duration":3267600,"status":"passed"},"match":{"location":"karate","arguments":[]},"keyword":"*","line":24,"doc_string":{"content_type":"","value":"16:05:25.615 after scenario inside config","line":24}}]}],"name":"featurefiles\/Karate16WritingResponeToFile.feature","description":"Karate Testsuite16\nwriting response to external file","id":"karate-testsuite16","keyword":"Feature","uri":"featurefiles\/Karate16WritingResponeToFile.feature"}]